%!PS-Adobe-2.0 EPSF-2.0
%%BoundingBox:  0 0 567 543
%%Title: /home/tav/cern/projects/PilotBlade/forApproval/9PBHitEffVsDel_2mm_344132868.eps: 0_6
%%Creator: ROOT Version 6.04/16
%%CreationDate: Thu May 11 14:57:43 2017
%%DocumentNeededResources: ProcSet (FontSetInit)
%%EndComments
%%BeginProlog
80 dict begin
/s {stroke} def /l {lineto} def /m {moveto} def /t {translate} def
/r {rotate} def /rl {roll}  def /R {repeat} def
/d {rlineto} def /rm {rmoveto} def /gr {grestore} def /f {eofill} def
/c {setrgbcolor} def /black {0 setgray} def /sd {setdash} def
/cl {closepath} def /sf {scalefont setfont} def /lw {setlinewidth} def
/box {m dup 0 exch d exch 0 d 0 exch neg d cl} def
/NC{systemdict begin initclip end}def/C{NC box clip newpath}def
/bl {box s} def /bf {gsave box gsave f grestore 1 lw [] 0 sd s grestore} def /Y { 0 exch d} def /X { 0 d} def 
/K {{pop pop 0 moveto} exch kshow} bind def
/ita {/ang 15 def gsave [1 0 ang dup sin exch cos div 1 0 0] concat} def 
/mp {newpath /y exch def /x exch def} def
/side {[w .77 mul w .23 mul] .385 w mul sd w 0 l currentpoint t -144 r} def
/mr {mp x y w2 0 360 arc} def /m24 {mr s} def /m20 {mr f} def
/mb {mp x y w2 add m w2 neg 0 d 0 w neg d w 0 d 0 w d cl} def
/mt {mp x y w2 add m w2 neg w neg d w 0 d cl} def
/m21 {mb f} def /m25 {mb s} def /m22 {mt f} def /m26{mt s} def
/m23 {mp x y w2 sub m w2 w d w neg 0 d cl f} def
/m27 {mp x y w2 add m w3 neg w2 neg d w3 w2 neg d w3 w2 d cl s} def
/m28 {mp x w2 sub y w2 sub w3 add m w3 0 d  0 w3 neg d w3 0 d 0 w3 d w3 0 d  0 w3 d w3 neg 0 d 0 w3 d w3 neg 0 d 0 w3 neg d w3 neg 0 d cl s } def
/m29 {mp gsave x w2 sub y w2 add w3 sub m currentpoint t 4 {side} repeat cl fill gr} def
/m30 {mp gsave x w2 sub y w2 add w3 sub m currentpoint t 4 {side} repeat cl s gr} def
/m31 {mp x y w2 sub m 0 w d x w2 sub y m w 0 d x w2 sub y w2 add m w w neg d x w2 sub y w2 sub m w w d s} def
/m32 {mp x y w2 sub m w2 w d w neg 0 d cl s} def
/m33 {mp x y w2 add m w3 neg w2 neg d w3 w2 neg d w3 w2 d cl f} def
/m34 {mp x w2 sub y w2 sub w3 add m w3 0 d  0 w3 neg d w3 0 d 0 w3 d w3 0 d  0 w3 d w3 neg 0 d 0 w3 d w3 neg 0 d 0 w3 neg d w3 neg 0 d cl f } def
/m2 {mp x y w2 sub m 0 w d x w2 sub y m w 0 d s} def
/m5 {mp x w2 sub y w2 sub m w w d x w2 sub y w2 add m w w neg d s} def
%%IncludeResource: ProcSet (FontSetInit)
%%IncludeResource: font Times-Roman
%%IncludeResource: font Times-Italic
%%IncludeResource: font Times-Bold
%%IncludeResource: font Times-BoldItalic
%%IncludeResource: font Helvetica
%%IncludeResource: font Helvetica-Oblique
%%IncludeResource: font Helvetica-Bold
%%IncludeResource: font Helvetica-BoldOblique
%%IncludeResource: font Courier
%%IncludeResource: font Courier-Oblique
%%IncludeResource: font Courier-Bold
%%IncludeResource: font Courier-BoldOblique
%%IncludeResource: font Symbol
%%IncludeResource: font ZapfDingbats
/reEncode {exch findfont dup length dict begin {1 index /FID eq  {pop pop} {def} ifelse } forall /Encoding exch def currentdict end dup /FontName get exch definefont pop } def [/Times-Bold /Times-Italic /Times-BoldItalic /Helvetica /Helvetica-Oblique
 /Helvetica-Bold /Helvetica-BoldOblique /Courier /Courier-Oblique /Courier-Bold /Courier-BoldOblique /Times-Roman /AvantGarde-Book /AvantGarde-BookOblique /AvantGarde-Demi /AvantGarde-DemiOblique /Bookman-Demi /Bookman-DemiItalic /Bookman-Light
 /Bookman-LightItalic /Helvetica-Narrow /Helvetica-Narrow-Bold /Helvetica-Narrow-BoldOblique /Helvetica-Narrow-Oblique /NewCenturySchlbk-Roman /NewCenturySchlbk-Bold /NewCenturySchlbk-BoldItalic /NewCenturySchlbk-Italic /Palatino-Bold
 /Palatino-BoldItalic /Palatino-Italic /Palatino-Roman ] {ISOLatin1Encoding reEncode } forall
%%EndProlog
%%BeginSetup
%%EndSetup
newpath  gsave  .25 .25 scale  gsave  0 0 t black[  ] 0 sd 3 lw 1 1 1 c 2268 2173 0 0 bf black 1 1 1 c 1814 1739 227 217 bf black 1814 1739 227 217 bl 1 1 1 c 1814 1739 227 217 bf black 1814 1739 227 217 bl 0 0 0.6 c 1 1 1 c black 3 lw 227 217 m 1814
 X s
 gsave  2268 2173 0 0 C 1721.64 79.6355 t 0 r /Helvetica findfont 72.0512 sf 0 0 m (Delay [ns]) show NC gr  361 269 m -52 Y s 428 243 m -26 Y s 496 243 m -26 Y s 563 243 m -26 Y s 630 243 m -26 Y s 697 269 m -52 Y s 764 243 m -26 Y s 831 243 m -26 Y
 s 899 243 m -26 Y s 966 243 m -26 Y s 1033 269 m -52 Y s 1100 243 m -26 Y s 1167 243 m -26 Y s 1235 243 m -26 Y s 1302 243 m -26 Y s 1369 269 m -52 Y s 1436 243 m -26 Y s 1503 243 m -26 Y s 1571 243 m -26 Y s 1638 243 m -26 Y s 1705 269 m -52 Y s
 1772 243 m -26 Y s 1839 243 m -26 Y s 1907 243 m -26 Y s 1974 243 m -26 Y s 2041 269 m -52 Y s 361 269 m -52 Y s 294 243 m -26 Y s
 gsave  2268 2173 0 0 C 341.295 147.895 t 0 r /Helvetica findfont 72.0512 sf 0 0 m (0) show NC gr 
 gsave  2268 2173 0 0 C 675.006 147.895 t 0 r /Helvetica findfont 72.0512 sf 0 0 m (5) show NC gr 
 gsave  2268 2173 0 0 C 989.756 147.895 t 0 r /Helvetica findfont 72.0512 sf 0 0 m (10) show NC gr 
 gsave  2268 2173 0 0 C 1327.26 147.895 t 0 r /Helvetica findfont 72.0512 sf 0 0 m (15) show NC gr 
 gsave  2268 2173 0 0 C 1660.97 147.895 t 0 r /Helvetica findfont 72.0512 sf 0 0 m (20) show NC gr 
 gsave  2268 2173 0 0 C 1998.47 147.895 t 0 r /Helvetica findfont 72.0512 sf 0 0 m (25) show NC gr  227 217 m 1739 Y s
 gsave  2268 2173 0 0 C 117.557 1645.8 t 90 r /Helvetica findfont 72.0512 sf 0 0 m (Efficiency) show NC gr  281 217 m -54 X s 254 300 m -27 X s 254 383 m -27 X s 254 466 m -27 X s 281 548 m -54 X s 254 631 m -27 X s 254 714 m -27 X s 254 797 m -27 X
 s 281 880 m -54 X s 254 962 m -27 X s 254 1045 m -27 X s 254 1128 m -27 X s 281 1211 m -54 X s 254 1293 m -27 X s 254 1376 m -27 X s 254 1459 m -27 X s 281 1542 m -54 X s 254 1625 m -27 X s 254 1707 m -27 X s 254 1790 m -27 X s 281 1873 m -54 X s
 281 1873 m -54 X s
 gsave  2268 2173 0 0 C 174.44 193.401 t 0 r /Helvetica findfont 72.0512 sf 0 0 m (0) show NC gr 
 gsave  2268 2173 0 0 C 113.765 523.319 t 0 r /Helvetica findfont 72.0512 sf 0 0 m (0.2) show NC gr 
 gsave  2268 2173 0 0 C 113.765 853.238 t 0 r /Helvetica findfont 72.0512 sf 0 0 m (0.4) show NC gr 
 gsave  2268 2173 0 0 C 113.765 1186.95 t 0 r /Helvetica findfont 72.0512 sf 0 0 m (0.6) show NC gr 
 gsave  2268 2173 0 0 C 113.765 1516.87 t 0 r /Helvetica findfont 72.0512 sf 0 0 m (0.8) show NC gr 
 gsave  2268 2173 0 0 C 185.816 1842.99 t 0 r /Helvetica findfont 72.0512 sf 0 0 m (1) show NC gr  378 424 m -30 X s 348 417 m 15 Y s 378 424 m 30 X s 408 417 m 15 Y s 378 424 m 232 Y s 370 656 m 16 X s 378 424 m -138 Y s 370 286 m 16 X s 620 1321 m
 -30 X s 590 1313 m 16 Y s 620 1321 m 30 X s 650 1313 m 16 Y s 620 1321 m 166 Y s 612 1487 m 15 X s 620 1321 m -184 Y s 612 1137 m 15 X s 922 1873 m -30 X s 892 1865 m 15 Y s 922 1873 m 30 X s 952 1865 m 15 Y s 922 1873 m -72 Y s 915 1801 m 15 X s
 1164 1873 m -30 X s 1134 1865 m 15 Y s 1164 1873 m 30 X s 1194 1865 m 15 Y s 1164 1873 m -75 Y s 1157 1798 m 15 X s 1466 1798 m -30 X s 1436 1790 m 15 Y s 1466 1798 m 31 X s 1497 1790 m 15 Y s 1466 1798 m 53 Y s 1459 1851 m 15 X s 1466 1798 m -102 Y
 s 1459 1696 m 15 X s 1708 1873 m -30 X s 1678 1865 m 15 Y s 1708 1873 m 31 X s 1739 1865 m 15 Y s 1708 1873 m -199 Y s 1701 1674 m 15 X s 1950 1873 m -30 X s 1920 1865 m 15 Y s 1950 1873 m 30 X s 1980 1865 m 15 Y s 1950 1873 m -222 Y s 1943 1651 m
 15 X s /w 2 def /w2 {w 2 div} def /w3 {w 3 div} def 378 424 620 1321 922 1873 1164 1873 1466 1798 1708 1873 1950 1873 7 { m20} R
 gsave  2268 2173 0 0 C 496.774 1979.51 t 0 r /Helvetica-Oblique findfont 79.6355 sf 0 0 m (Preliminary 2016) show NC gr 
 gsave  2268 2173 0 0 C 223.738 1979.51 t 0 r /Helvetica-Bold findfont 102.389 sf 0 0 m (CMS ) show NC gr  1 1 1 c black
 gsave  2268 2173 0 0 C 398.178 2093.28 t 0 r /Helvetica findfont 72.0512 sf 0 0 m (Efficiency vs Delay in BmO_D3_BLD10_PNL1) show NC gr 
 gr  gr showpage
end
%%EOF
