%!PS-Adobe-2.0 EPSF-2.0
%%BoundingBox:  0 0 567 543
%%Title: /home/tav/cern/projects/PilotBlade/forApproval/6All_PBClusterCharge.eps: Clusters Charge Distribution 
%%Creator: ROOT Version 6.04/16
%%CreationDate: Thu May 11 14:43:29 2017
%%DocumentNeededResources: ProcSet (FontSetInit)
%%EndComments
%%BeginProlog
80 dict begin
/s {stroke} def /l {lineto} def /m {moveto} def /t {translate} def
/r {rotate} def /rl {roll}  def /R {repeat} def
/d {rlineto} def /rm {rmoveto} def /gr {grestore} def /f {eofill} def
/c {setrgbcolor} def /black {0 setgray} def /sd {setdash} def
/cl {closepath} def /sf {scalefont setfont} def /lw {setlinewidth} def
/box {m dup 0 exch d exch 0 d 0 exch neg d cl} def
/NC{systemdict begin initclip end}def/C{NC box clip newpath}def
/bl {box s} def /bf {gsave box gsave f grestore 1 lw [] 0 sd s grestore} def /Y { 0 exch d} def /X { 0 d} def 
/K {{pop pop 0 moveto} exch kshow} bind def
/ita {/ang 15 def gsave [1 0 ang dup sin exch cos div 1 0 0] concat} def 
/mp {newpath /y exch def /x exch def} def
/side {[w .77 mul w .23 mul] .385 w mul sd w 0 l currentpoint t -144 r} def
/mr {mp x y w2 0 360 arc} def /m24 {mr s} def /m20 {mr f} def
/mb {mp x y w2 add m w2 neg 0 d 0 w neg d w 0 d 0 w d cl} def
/mt {mp x y w2 add m w2 neg w neg d w 0 d cl} def
/m21 {mb f} def /m25 {mb s} def /m22 {mt f} def /m26{mt s} def
/m23 {mp x y w2 sub m w2 w d w neg 0 d cl f} def
/m27 {mp x y w2 add m w3 neg w2 neg d w3 w2 neg d w3 w2 d cl s} def
/m28 {mp x w2 sub y w2 sub w3 add m w3 0 d  0 w3 neg d w3 0 d 0 w3 d w3 0 d  0 w3 d w3 neg 0 d 0 w3 d w3 neg 0 d 0 w3 neg d w3 neg 0 d cl s } def
/m29 {mp gsave x w2 sub y w2 add w3 sub m currentpoint t 4 {side} repeat cl fill gr} def
/m30 {mp gsave x w2 sub y w2 add w3 sub m currentpoint t 4 {side} repeat cl s gr} def
/m31 {mp x y w2 sub m 0 w d x w2 sub y m w 0 d x w2 sub y w2 add m w w neg d x w2 sub y w2 sub m w w d s} def
/m32 {mp x y w2 sub m w2 w d w neg 0 d cl s} def
/m33 {mp x y w2 add m w3 neg w2 neg d w3 w2 neg d w3 w2 d cl f} def
/m34 {mp x w2 sub y w2 sub w3 add m w3 0 d  0 w3 neg d w3 0 d 0 w3 d w3 0 d  0 w3 d w3 neg 0 d 0 w3 d w3 neg 0 d 0 w3 neg d w3 neg 0 d cl f } def
/m2 {mp x y w2 sub m 0 w d x w2 sub y m w 0 d s} def
/m5 {mp x w2 sub y w2 sub m w w d x w2 sub y w2 add m w w neg d s} def
%%IncludeResource: ProcSet (FontSetInit)
%%IncludeResource: font Times-Roman
%%IncludeResource: font Times-Italic
%%IncludeResource: font Times-Bold
%%IncludeResource: font Times-BoldItalic
%%IncludeResource: font Helvetica
%%IncludeResource: font Helvetica-Oblique
%%IncludeResource: font Helvetica-Bold
%%IncludeResource: font Helvetica-BoldOblique
%%IncludeResource: font Courier
%%IncludeResource: font Courier-Oblique
%%IncludeResource: font Courier-Bold
%%IncludeResource: font Courier-BoldOblique
%%IncludeResource: font Symbol
%%IncludeResource: font ZapfDingbats
/reEncode {exch findfont dup length dict begin {1 index /FID eq  {pop pop} {def} ifelse } forall /Encoding exch def currentdict end dup /FontName get exch definefont pop } def [/Times-Bold /Times-Italic /Times-BoldItalic /Helvetica /Helvetica-Oblique
 /Helvetica-Bold /Helvetica-BoldOblique /Courier /Courier-Oblique /Courier-Bold /Courier-BoldOblique /Times-Roman /AvantGarde-Book /AvantGarde-BookOblique /AvantGarde-Demi /AvantGarde-DemiOblique /Bookman-Demi /Bookman-DemiItalic /Bookman-Light
 /Bookman-LightItalic /Helvetica-Narrow /Helvetica-Narrow-Bold /Helvetica-Narrow-BoldOblique /Helvetica-Narrow-Oblique /NewCenturySchlbk-Roman /NewCenturySchlbk-Bold /NewCenturySchlbk-BoldItalic /NewCenturySchlbk-Italic /Palatino-Bold
 /Palatino-BoldItalic /Palatino-Italic /Palatino-Roman ] {ISOLatin1Encoding reEncode } forall
%%EndProlog
%%BeginSetup
%%EndSetup
newpath  gsave  .25 .25 scale  gsave  0 0 t black[  ] 0 sd 3 lw 1 1 1 c 2268 2173 0 0 bf black 1 1 1 c 1814 1739 227 217 bf black 1814 1739 227 217 bl 1 1 1 c 1814 1739 227 217 bf black 1814 1739 227 217 bl 0 0 0.6 c 6 lw 1 1 1 c black 0 0 0.6 c 227
 217 m 1814 X s black 3 lw 227 217 m 1814 X s
 gsave  2268 2173 0 0 C 1437.23 75.8434 t 0 r /Helvetica findfont 72.0512 sf 0 0 m (Cluster charge [ke]) show NC gr  227 269 m -52 Y s 272 243 m -26 Y s 317 243 m -26 Y s 363 243 m -26 Y s 408 243 m -26 Y s 454 269 m -52 Y s 499 243 m -26 Y s 544 243
 m -26 Y s 590 243 m -26 Y s 635 243 m -26 Y s 680 269 m -52 Y s 726 243 m -26 Y s 771 243 m -26 Y s 816 243 m -26 Y s 862 243 m -26 Y s 907 269 m -52 Y s 952 243 m -26 Y s 998 243 m -26 Y s 1043 243 m -26 Y s 1089 243 m -26 Y s 1134 269 m -52 Y s
 1179 243 m -26 Y s 1225 243 m -26 Y s 1270 243 m -26 Y s 1315 243 m -26 Y s 1361 269 m -52 Y s 1406 243 m -26 Y s 1451 243 m -26 Y s 1497 243 m -26 Y s 1542 243 m -26 Y s 1587 269 m -52 Y s 1633 243 m -26 Y s 1678 243 m -26 Y s 1723 243 m -26 Y s
 1769 243 m -26 Y s 1814 269 m -52 Y s 1860 243 m -26 Y s 1905 243 m -26 Y s 1950 243 m -26 Y s 1996 243 m -26 Y s 2041 269 m -52 Y s
 gsave  2268 2173 0 0 C 204.777 147.895 t 0 r /Helvetica findfont 72.0512 sf 0 0 m (0) show NC gr 
 gsave  2268 2173 0 0 C 409.554 147.895 t 0 r /Helvetica findfont 72.0512 sf 0 0 m (10) show NC gr 
 gsave  2268 2173 0 0 C 637.084 147.895 t 0 r /Helvetica findfont 72.0512 sf 0 0 m (20) show NC gr 
 gsave  2268 2173 0 0 C 864.614 147.895 t 0 r /Helvetica findfont 72.0512 sf 0 0 m (30) show NC gr 
 gsave  2268 2173 0 0 C 1092.14 147.895 t 0 r /Helvetica findfont 72.0512 sf 0 0 m (40) show NC gr 
 gsave  2268 2173 0 0 C 1315.88 147.895 t 0 r /Helvetica findfont 72.0512 sf 0 0 m (50) show NC gr 
 gsave  2268 2173 0 0 C 1543.41 147.895 t 0 r /Helvetica findfont 72.0512 sf 0 0 m (60) show NC gr 
 gsave  2268 2173 0 0 C 1770.94 147.895 t 0 r /Helvetica findfont 72.0512 sf 0 0 m (70) show NC gr 
 gsave  2268 2173 0 0 C 1998.47 147.895 t 0 r /Helvetica findfont 72.0512 sf 0 0 m (80) show NC gr  227 217 m 1739 Y s
 gsave  2268 2173 0 0 C 125.142 1797.49 t 90 r /Helvetica findfont 72.0512 sf 0 0 m (Yield) show NC gr  281 217 m -54 X s 254 261 m -27 X s 254 304 m -27 X s 254 348 m -27 X s 254 391 m -27 X s 281 435 m -54 X s 254 478 m -27 X s 254 522 m -27 X s
 254 565 m -27 X s 254 608 m -27 X s 281 652 m -54 X s 254 695 m -27 X s 254 739 m -27 X s 254 782 m -27 X s 254 826 m -27 X s 281 869 m -54 X s 254 913 m -27 X s 254 956 m -27 X s 254 1000 m -27 X s 254 1043 m -27 X s 281 1086 m -54 X s 254 1130 m
 -27 X s 254 1173 m -27 X s 254 1217 m -27 X s 254 1260 m -27 X s 281 1304 m -54 X s 254 1347 m -27 X s 254 1391 m -27 X s 254 1434 m -27 X s 254 1478 m -27 X s 281 1521 m -54 X s 254 1565 m -27 X s 254 1608 m -27 X s 254 1651 m -27 X s 254 1695 m
 -27 X s 281 1738 m -54 X s 281 1738 m -54 X s 254 1782 m -27 X s 254 1825 m -27 X s 254 1869 m -27 X s 254 1912 m -27 X s
 gsave  2268 2173 0 0 C 174.44 193.401 t 0 r /Helvetica findfont 72.0512 sf 0 0 m (0) show NC gr 
 gsave  2268 2173 0 0 C 53.0904 409.554 t 0 r /Helvetica findfont 72.0512 sf 0 0 m (5000) show NC gr 
 gsave  2268 2173 0 0 C 15.1687 625.708 t 0 r /Helvetica findfont 72.0512 sf 0 0 m (10000) show NC gr 
 gsave  2268 2173 0 0 C 15.1687 845.654 t 0 r /Helvetica findfont 72.0512 sf 0 0 m (15000) show NC gr 
 gsave  2268 2173 0 0 C 15.1687 1061.81 t 0 r /Helvetica findfont 72.0512 sf 0 0 m (20000) show NC gr 
 gsave  2268 2173 0 0 C 15.1687 1277.96 t 0 r /Helvetica findfont 72.0512 sf 0 0 m (25000) show NC gr 
 gsave  2268 2173 0 0 C 15.1687 1497.91 t 0 r /Helvetica findfont 72.0512 sf 0 0 m (30000) show NC gr 
 gsave  2268 2173 0 0 C 15.1687 1714.06 t 0 r /Helvetica findfont 72.0512 sf 0 0 m (35000) show NC gr  0 0 0.6 c 6 lw 1 1 1 c black 3 lw /w 30 def /w2 {w 2 div} def /w3 {w 3 div} def 340 596 386 834 431 1112 476 1416 522 1709 567 1838 612 1630 658
 1619 703 1348 748 1162 794 1022 839 817 884 699 930 597 975 524 1020 506 1066 450 1111 416 1157 377 1202 345 1247 346 1293 327 1338 319 1383 303 1429 290 1474 290 1519 282 1565 281 1610 272 1655 267 1701 261 1746 261 1791 256 1837 254 1882 251 1928
 245 1973 247 2018 245 38 { m20} R 6 lw 1 1 1 c black
 gsave  2268 2173 0 0 C 618.123 2093.28 t 0 r /Helvetica findfont 79.6355 sf 0 0 m (Clusters Charge Distribution ) show NC gr  1 0 0 c 1 1 1 c 1 0 0 c 3 lw 340 769 386 655 431 785 476 1005 522 1329 567 1504 612 1467 658 1294 703 1087 748 1042 794 904
 839 753 884 663 930 584 975 495 1020 452 1066 403 1111 379 1157 352 1202 333 1247 322 1293 310 1338 298 1383 292 1429 280 1474 280 1519 273 1565 263 1610 262 1655 259 1701 252 1746 252 1791 249 1837 246 1882 245 1928 243 1973 241 2018 238 38 { m20}
 R 6 lw black
 gsave  2268 2173 0 0 C 492.982 1983.3 t 0 r /Helvetica-Oblique findfont 79.6355 sf 0 0 m (Preliminary 2016) show NC gr 
 gsave  2268 2173 0 0 C 219.946 1983.3 t 0 r /Helvetica-Bold findfont 102.389 sf 0 0 m (CMS ) show NC gr  1 1 1 c 3 lw 1058 303 971 1627 bf 971 1627 m 1058 X s 2029 1627 m 303 Y s 2029 1930 m -1058 X s 971 1930 m -303 Y s black
 gsave  2268 2173 0 0 C 993.548 1858.16 t 0 r /Helvetica findfont 64.4669 sf 0 0 m (Modules) show NC gr 
 gsave  2268 2173 0 0 C 1232.45 1755.77 t 0 r /Helvetica findfont 64.4669 sf 0 0 m (BmO_D3_BLD10_PNL1) show NC gr  1 1 1 c 1010 1743 m 186 X 71 Y -186 X f black 6 lw 1010 1779 m 186 X s 3 lw 1103 1779 m20 6 lw
 gsave  2268 2173 0 0 C 1232.45 1657.18 t 0 r /Helvetica findfont 64.4669 sf 0 0 m (BmO_D3_BLD11_PNL2) show NC gr  1 1 1 c 3 lw 1010 1642 m 186 X 71 Y -186 X f 6 lw 1 0 0 c 1010 1677 m 186 X s 3 lw 1103 1677 m20 6 lw
 gr  gr showpage
end
%%EOF
